<?xml version="1.0" standalone="no"?>
<!DOCTYPE svg PUBLIC "-//W3C//DTD SVG 20010904//EN"
 "http://www.w3.org/TR/2001/REC-SVG-20010904/DTD/svg10.dtd">
<svg version="1.0" xmlns="http://www.w3.org/2000/svg"
 width="573.000000pt" height="156.000000pt" viewBox="0 0 573.000000 156.000000"
 preserveAspectRatio="xMidYMid meet">

<g transform="translate(0.000000,156.000000) scale(0.100000,-0.100000)"
fill="#000000" stroke="none">
<path d="M658 1550 c-77 -13 -199 -57 -268 -97 -80 -46 -232 -197 -279 -276
-49 -84 -92 -217 -104 -326 -31 -280 110 -572 353 -729 71 -46 194 -98 259
-108 l41 -7 0 315 0 315 -42 13 c-66 19 -173 73 -273 135 -106 67 -244 167
-245 178 0 4 48 7 108 7 l107 0 75 -51 c73 -49 240 -139 259 -139 5 0 11 92
13 218 5 266 14 300 114 400 80 80 127 101 224 102 l75 1 -40 15 c-103 39
-263 53 -377 34z"/>
<path d="M994 1436 c-17 -8 -41 -28 -54 -46 -44 -62 -50 -106 -50 -377 l0
-253 33 0 c80 0 207 93 255 187 96 188 58 434 -75 489 -40 17 -69 17 -109 0z"/>
<path d="M1288 1333 c25 -53 27 -68 27 -184 l0 -126 -48 -96 c-75 -152 -169
-240 -308 -290 l-64 -23 -3 -302 -2 -302 29 0 c41 0 177 46 241 82 128 72 246
190 310 309 164 308 116 664 -122 915 -39 41 -74 74 -79 74 -4 0 4 -26 19 -57z"/>
<path d="M2862 1357 c-77 -28 -125 -112 -103 -179 13 -40 63 -90 106 -106 17
-6 68 -21 115 -32 47 -12 93 -29 103 -37 39 -36 6 -97 -60 -109 -71 -13 -136
16 -159 72 l-14 34 -58 -6 c-31 -4 -59 -8 -61 -10 -9 -8 33 -104 57 -127 102
-97 335 -84 415 24 26 36 33 106 14 150 -23 57 -70 84 -197 119 -127 34 -159
55 -141 88 14 27 80 45 128 36 39 -7 73 -35 73 -59 0 -12 14 -15 65 -15 59 0
65 2 65 20 0 49 -50 108 -112 135 -45 18 -187 19 -236 2z"/>
<path d="M1812 1083 l3 -278 63 -3 62 -3 0 281 0 280 -65 0 -65 0 2 -277z"/>
<path d="M2122 1083 l3 -278 57 -3 58 -3 2 179 3 179 120 -178 120 -178 63 -1
62 0 0 280 0 280 -60 0 -60 0 -2 -176 -3 -177 -118 177 -117 176 -65 0 -65 0
2 -277z"/>
<path d="M3280 1315 l0 -45 90 0 90 0 0 -235 0 -236 63 3 62 3 3 233 2 232 90
0 90 0 0 45 0 45 -245 0 -245 0 0 -45z"/>
<path d="M3860 1080 l0 -280 60 0 60 0 0 280 0 280 -60 0 -60 0 0 -280z"/>
<path d="M4070 1315 l0 -45 95 0 95 0 0 -235 0 -235 60 0 60 0 0 235 0 235 90
0 90 0 0 45 0 45 -245 0 -245 0 0 -45z"/>
<path d="M4640 1181 c0 -195 9 -268 40 -311 44 -62 178 -94 294 -70 70 14 130
63 146 118 5 21 10 128 10 240 l0 202 -65 0 -65 0 0 -208 c0 -203 -1 -209 -22
-229 -49 -45 -147 -38 -188 14 -19 24 -20 40 -20 224 l0 199 -65 0 -65 0 0
-179z"/>
<path d="M5210 1315 l0 -45 90 0 90 0 0 -235 0 -236 63 3 62 3 3 233 2 232 90
0 90 0 0 45 0 45 -245 0 -245 0 0 -45z"/>
<path d="M3070 634 c-61 -12 -91 -28 -124 -65 -31 -33 -36 -46 -36 -88 0 -58
29 -106 80 -132 19 -10 82 -31 139 -46 109 -28 136 -48 125 -90 -9 -32 -48
-54 -102 -56 -67 -3 -108 17 -129 64 -19 41 -31 45 -105 33 l-36 -6 13 -46
c30 -97 109 -144 244 -144 120 0 189 31 227 104 22 42 18 119 -8 158 -30 43
-71 64 -192 95 -121 31 -136 39 -136 70 0 45 89 70 155 45 14 -5 34 -23 43
-40 16 -28 21 -30 74 -30 31 0 59 3 61 8 8 11 -19 81 -40 104 -40 46 -171 77
-253 62z"/>
<path d="M1815 618 c-3 -7 -4 -135 -3 -283 l3 -270 63 -3 62 -3 0 111 0 110
103 0 c120 0 176 21 215 80 20 30 23 45 20 102 -4 78 -23 111 -84 142 -34 18
-61 21 -206 25 -135 2 -169 0 -173 -11z m314 -112 c24 -22 28 -73 8 -100 -14
-20 -80 -34 -154 -35 l-43 -1 0 81 0 81 84 -3 c65 -3 89 -8 105 -23z"/>
<path d="M2377 355 c-65 -151 -117 -280 -117 -285 0 -7 23 -10 61 -8 67 3 66
3 99 81 l19 47 121 0 121 0 19 -47 c33 -79 31 -78 105 -81 54 -2 66 0 62 11
-3 7 -58 136 -124 285 l-118 272 -66 0 -66 0 -116 -275z m226 23 l35 -88 -80
0 c-60 0 -79 3 -75 13 3 6 20 49 38 95 18 45 36 79 40 75 4 -4 23 -47 42 -95z"/>
<path d="M3417 623 c-4 -3 -7 -26 -7 -50 l0 -43 90 0 90 0 2 -232 3 -233 63
-3 62 -3 0 236 0 235 90 0 90 0 0 50 0 50 -238 0 c-131 0 -242 -3 -245 -7z"/>
<path d="M3995 617 c-3 -7 -4 -134 -3 -282 l3 -270 233 -3 232 -2 0 50 0 50
-170 0 -170 0 0 75 0 75 155 0 155 0 0 50 0 50 -155 0 -155 0 0 60 0 60 165 0
165 0 0 50 0 50 -225 0 c-173 0 -227 -3 -230 -13z"/>
<path d="M4562 413 c4 -233 7 -251 60 -300 41 -39 95 -55 188 -55 66 0 98 5
131 19 97 44 108 79 109 346 l0 208 -62 -3 -63 -3 -5 -213 c-5 -210 -5 -214
-29 -233 -17 -14 -39 -19 -83 -19 -52 0 -63 3 -89 29 l-29 29 0 206 0 206 -66
0 -66 0 4 -217z"/>
<path d="M5180 346 l0 -287 63 3 62 3 3 118 3 117 25 0 c56 0 89 -26 169 -134
l79 -106 74 0 c41 0 72 4 70 8 -13 32 -137 198 -160 215 -36 26 -35 33 3 41
43 8 96 64 104 109 10 49 -1 99 -27 132 -39 50 -76 58 -280 63 l-188 4 0 -286z
m344 163 c32 -25 35 -68 5 -95 -17 -15 -40 -20 -120 -22 l-99 -4 0 71 0 71 94
0 c79 0 97 -3 120 -21z"/>
</g>
</svg>
